Group Task
…
Which party wins in municipalities with more than 100.000 inhabitants?

Code

Q2 <- election_data_clean |> 
  filter(censo > 100000) |> 
  group_by(date, municipio) |> 
  slice(which.max(votos)) |> 
  select(date, municipio, party_acronym, votos) |> 
  arrange(municipio) |> 
  ungroup() 

The winner in each municipality were…

# A tibble: 282 × 4
   date       municipio         party_acronym votos
   <date>     <chr>             <chr>         <dbl>
 1 2008-03-01 Albacete          PP            49909
 2 2011-11-01 Albacete          PP            55858
 3 2015-12-01 Albacete          PP            36149
 4 2016-06-01 Albacete          PP            38470
 5 2019-04-01 Albacete          PSOE          28729
 6 2019-11-01 Albacete          PSOE          27074
 7 2008-03-01 Alcalá de Henares PP            48087
 8 2011-11-01 Alcalá de Henares PP            46667
 9 2015-12-01 Alcalá de Henares PP            30927
10 2016-06-01 Alcalá de Henares PP            33949
# ℹ 272 more rows
…
# Creating a ranking for each election 
election_data |> 
  group_by(date, party_acronym) |>
  mutate(sum_votes = sum(votos)) |> 
  distinct(date, party_acronym, .keep_all = TRUE) |> 
  select(date, party_acronym, sum_votes) |>
  ungroup(party_acronym) |> 
  filter(party_acronym != "OTHERS") |> 
  mutate(rank = rank(-sum_votes)) |> 
  arrange(date, rank)

# Output
Q3

# A tibble: 52 × 4
# Groups:   date [6]
   date       party_acronym sum_votes  rank
   <date>     <chr>             <dbl> <dbl>
 1 2008-03-01 PSOE           11002470     1
 2 2008-03-01 PP             10171828     2
 3 2008-03-01 OTHERS          2172143     3
 4 2008-03-01 CIU              774425     4
 5 2008-03-01 UP               435474     5
 6 2008-03-01 PNV              303264     6
 7 2008-03-01 BNG              209434     7
 8 2011-11-01 PP             10838951     1
 9 2011-11-01 PSOE            6640342     2
10 2011-11-01 OTHERS          4655536     3
# ℹ 42 more rows
…
    str_detect(abrev, "VOX") ~ "VOX",
    
    str_detect(abrev, "MP") ~ "MÁS PAÍS",
    
    TRUE ~ "OTHERS"
  ))|> 
  relocate(party_acronym, .before = votes_intentions) |> 
  select(-abrev)

Clear nicknames out there !

# A tibble: 24,451 × 6
   date_elec  pollster     media       size party_acronym votes_intentions
   <date>     <chr>        <chr>      <dbl> <chr>                    <dbl>
 1 2019-04-28 SOCIOMÉTRICA EL ESPAÑOL  3600 OTHERS                    NA  
 2 2019-04-28 SOCIOMÉTRICA EL ESPAÑOL  3600 PSOE                      27.9
 3 2019-04-28 SOCIOMÉTRICA EL ESPAÑOL  3600 OTHERS                    NA  
 4 2019-04-28 SOCIOMÉTRICA EL ESPAÑOL  3600 OTHERS                    NA  
 5 2019-04-28 SOCIOMÉTRICA EL ESPAÑOL  3600 CIU                       NA  
 6 2019-04-28 SOCIOMÉTRICA EL ESPAÑOL  3600 OTHERS                    NA  
 7 2019-04-28 SOCIOMÉTRICA EL ESPAÑOL  3600 PNV                        1.2
 8 2019-04-28 SOCIOMÉTRICA EL ESPAÑOL  3600 OTHERS                    NA  
 9 2019-04-28 SOCIOMÉTRICA EL ESPAÑOL  3600 ERC                        2.8
10 2019-04-28 SOCIOMÉTRICA EL ESPAÑOL  3600 OTHERS                    NA  
# ℹ 24,441 more rows
…
